127.0.0.1 - - [16/Jan/2024:19:02:57 +0000] "GET / HTTP/1.1" 404 751
0:0:0:0:0:0:0:1 - - [16/Jan/2024:19:02:58 +0000] "GET /EmpWebApp/Login.html HTTP/1.1" 200 482
0:0:0:0:0:0:0:1 - - [16/Jan/2024:19:03:12 +0000] "POST /EmpWebApp/LoginServlet HTTP/1.1" 200 654
0:0:0:0:0:0:0:1 - - [16/Jan/2024:19:03:15 +0000] "GET /EmpWebApp/GetEmpById.jsp HTTP/1.1" 200 1201
127.0.0.1 - - [16/Jan/2024:19:40:22 +0000] "GET / HTTP/1.1" 404 751
0:0:0:0:0:0:0:1 - - [16/Jan/2024:19:40:30 +0000] "POST /EmpWebApp/LoginServlet HTTP/1.1" 200 600
0:0:0:0:0:0:0:1 - - [16/Jan/2024:19:40:48 +0000] "POST /EmpWebApp/LoginServlet HTTP/1.1" 200 654
0:0:0:0:0:0:0:1 - - [16/Jan/2024:19:40:51 +0000] "GET /EmpWebApp/GetAllEmps HTTP/1.1" 200 2006
0:0:0:0:0:0:0:1 - - [16/Jan/2024:19:40:53 +0000] "GET /EmpWebApp/GetEmpById.jsp HTTP/1.1" 200 1201
0:0:0:0:0:0:0:1 - - [16/Jan/2024:19:40:57 +0000] "POST /EmpWebApp/GetEmpById HTTP/1.1" 200 1262
