INDEX VERSION 1.130+C:\jdbc-and-advance-java\Spring Boot\WorkSpace 2\.metadata\.plugins\org.eclipse.jdt.core
4229891941.index
3578020678.index
4259073463.index
3926854650.index
4116077892.index
2885606711.index
2507423472.index
103378668.index
38587605.index
1042933137.index
847181078.index
2280824553.index
1088444589.index
1318221229.index
158472536.index
3152806741.index
2331865692.index
1873896275.index
1692654745.index
2071899228.index
1506378269.index
674573568.index
3921045008.index
180045199.index
46606747.index
1420267617.index
2672916883.index
1032093370.index
1094938870.index
1182501116.index
4089765016.index
2891782073.index
682233710.index
1897552840.index
3520424145.index
2066830214.index
3796219515.index
1631215790.index
1614076663.index
4175984132.index
3858155954.index
2587099047.index
1961815414.index
1132291763.index
3512346830.index
1070925910.index
1815616823.index
2496433315.index
116554015.index
1273297841.index
3198953083.index
3040837599.index
1736029357.index
2224237912.index
970717607.index
3219826390.index
1979752633.index
2330590175.index
1232460505.index
1761928323.index
4135958314.index
966277549.index
542153213.index
3537285648.index
516855126.index
4138326577.index
4241006554.index
3818675454.index
3258631911.index
1939103288.index
10832866.index
1946725198.index
3393280647.index
2205283528.index
4203771247.index
1038751644.index
3345350613.index
1838316201.index
2561441264.index
2005727387.index
2085310926.index
1489867263.index
2363566023.index
3398067684.index
3861961647.index
86227822.index
3123164085.index
3748878864.index
144601765.index
3644761064.index
1099359906.index
1956904976.index
3530034390.index
713851350.index
230428119.index
2543148744.index
2738065678.index
411227453.index
895354549.index
3522488191.index
3348520720.index
789793410.index
2769564526.index
